quarter,GDPE,GDPU
1995q1,86.70001007571138,80.3999858347336
1995q2,87.29995959359231,80.60002824929077
1995q3,87.50001808068957,81.19997992999073
1995q4,87.80004384372495,81.7999800728107
1996q1,87.90001716765127,82.39996399817673
1996q2,88.50003964678017,83.79999937250248
1996q3,88.9999670938456,84.50003934632485
1996q4,89.29995643210755,85.39999139214804
1997q1,89.59997132971731,86.09996457556701
1997q2,90.69996760912287,87.39997529538925
1997q3,91.30001939203781,88.50003964678017
1997q4,92.19998796213382,89.1999964689321
1998q1,92.90003290334708,90.00002967028104
1998q2,93.29998993728785,90.7999740668656
1998q3,93.80001350605862,92.00003891149653
1998q4,94.00002046662183,93.59996410594698
1999q1,94.90002793705692,94.39999309450289
1999q2,95.40004021547392,95.20000554089532
1999q3,96.60002499829885,96.39998056417139
1999q4,97.70004308094792,98.09996403936037
2000q1,98.89997639962775,98.40001928067424
2000q2,99.79998170492334,100.3000305947253
2000q3,100.3000305947253,100.3999791913363
2000q4,101.0000487990446,101.0000487990446
2001q1,101.7999894009487,100.5999740788401
2001q2,101.7999894009487,101.2999583399138
2001q3,101.9000060906978,101.0000487990446
2001q4,102.0000190450061,101.3999907566723
2002q1,102.300033456445,102.2000329319518
2002q2,102.799963709441,102.799963709441
2002q3,103.0999596855454,103.2999611462335
2002q4,103.200015165503,103.2999611462335
2003q1,103.2999611462335,103.6999880500813
2003q2,103.2999611462335,104.6000468994265
2003q3,103.8000030380404,106.2999696675223
2003q4,104.4000338831781,107.3000375939937
2004q1,104.9999632334665,107.9999754705871
2004q2,105.5999607936671,108.7999636149097
2004q3,105.8999732488839,109.5999589532826
2004q4,106.2999696675223,110.5000529341749
2005q1,106.6000520494088,111.7000328314101
2005q2,107.3000375939937,112.0999629982495
2005q3,107.9999754705871,113.0000204855074
2005q4,108.5999557455269,113.6000560858048
2006q1,109.4000120353265,115.0999636597317
2006q2,110.7000177435962,115.5000542894193
2006q3,111.3999635172653,115.5000542894193
2006q4,112.3000155261053,116.2999930772871
2007q1,113.1999812349414,116.7000537645764
2007q2,113.6999544339962,117.5999958293717
2007q3,114.3999909686126,118.699964198231
2007q4,114.799944449962,119.2999607379147
2008q1,115.7000423231104,119.0999432653882
2008q2,115.2999507352015,119.4999556211062
2008q3,114.8999787601957,118.699964198231
2008q4,112.6000320115552,117.0999683123144
2009q1,109.80005170753,115.0999636597317
2009q2,109.6999597092615,114.8999787601957
2009q3,110.0999951854775,115.6000050588553
2009q4,110.3000081335823,117.2000143988515
